{
  "CW": false,
  "AMTOR": false,
  "AMTORFEC": false,
  "AM": true,
  "ARDOP": false,
  "ASCII": false,
  "ATV": false,
  "BPSK31": false,
  "BPSK63": false,
  "BPSK125": false,
  "C4FM": true,
  "CHIP": false,
  "CHIP64": false,
  "CHIP128": false,
  "CLO": false,
  "CLOVER": false,
  "CONTESTIA": false,
  "DATA": false,
  "DIGVOICE": true,
  "DIGITALVOICE": true,
  "DOMINO": false,
  "DOMINOEX": false,
  "DOMINOF": false,
  "DSTAR": true,
  "DSSTV": false,
  "FAX": false,
  "FM": true,
  "FMHELL": false,
  "FSK31": false,
  "FSK441": false,
  "FT4": false,
  "FT8": false,
  "GTOR": false,
  "HELL": false,
  "HELL80": false,
  "HFSK": false,
  "ISCAT": false,
  "JS8": false,
  "JT4": false,
  "JT4A": false,
  "JT4B": false,
  "JT4C": false,
  "JT4D": false,
  "JT4E": false,
  "JT4F": false,
  "JT4G": false,
  "JT65": false,
  "JT65A": false,
  "JT65B": false,
  "JT65B2": false,
  "JT65C": false,
  "JT65C2": false,
  "JT6M": false,
  "JT9": false,
  "LSB": true,
  "MFSK": false,
  "MFSK4": false,
  "MFSK8": false,
  "MFSK16": false,
  "MFSK22": false,
  "MFSK31": false,
  "MFSK32": false,
  "MFSK64": false,
  "MFSK128": false,
  "MINIRTTY": false,
  "MSK144": false,
  "MT63": false,
  "OLIVIA": false,
  "OPERA": false,
  "PAC": false,
  "PAC2": false,
  "PAC3": false,
  "PAC4": false,
  "PACKET": false,
  "PACTOR": false,
  "PAX": false,
  "PAX2": false,
  "PHONE": true,
  "PKT": false,
  "PSK": false,
  "PSK10": false,
  "PSK31": false,
  "PSK2K": false,
  "PSK63": false,
  "PSK63F": false,
  "PSK125": false,
  "PSK250": false,
  "PSK500": false,
  "PSK1000": false,
  "PSK220F": false,
  "PSKAM10": false,
  "PSKAM31": false,
  "PSKAM50": false,
  "PSKFEC31": false,
  "PSKHELL": false,
  "Q15": false,
  "QPSK31": false,
  "QPSK63": false,
  "QPSK125": false,
  "QPSK250": false,
  "QPSK500": false,
  "QRA64": false,
  "QRA64A": false,
  "QRA64B": false,
  "QRA64C": false,
  "QRA64D": false,
  "QRA64E": false,
  "ROS": false,
  "RTTY": false,
  "RTTYM": false,
  "SIM31": false,
  "SIM64": false,
  "SSB": true,
  "SSTV": false,
  "T10": false,
  "THOR": false,
  "THRB": false,
  "THRBX": false,
  "THROB": false,
  "TOR": false,
  "USB": true,
  "VARA": false,
  "V4": false,
  "VOI": false,
  "WINMOR": false,
  "WSPR": false
}
