<?xml version="1.0" encoding="iso-8859-1"?>
<!-- Generator: Adobe Illustrator 19.0.0, SVG Export Plug-In . SVG Version: 6.00 Build 0)  -->
<svg version="1.1" id="Capa_1" xmlns="http://www.w3.org/2000/svg" xmlns:xlink="http://www.w3.org/1999/xlink" x="0px" y="0px"
	 viewBox="0 0 350 350" style="enable-background:new 0 0 350 350;" xml:space="preserve">
<g id="XMLID_848_">
	<polygon id="XMLID_37_" style="fill:#003778;" points="65.001,60 122.713,43.592 172.713,190 115,206.408 	"/>
	<polygon id="XMLID_36_" style="fill:#0052B4;" points="285,60 227.287,43.592 177.287,190 235,206.408 	"/>
	<circle id="XMLID_849_" style="fill:#FF9811;" cx="175" cy="260" r="90"/>
	<path id="XMLID_850_" style="fill:#BF720D;" d="M175,350c-49.705,0-90-40.295-90-90c0-49.706,40.295-90,90-90"/>
	<circle id="XMLID_851_" style="fill:#FFDA44;" cx="175" cy="260" r="60"/>
	<rect id="XMLID_852_" x="65" style="fill:#0052B4;" width="110" height="60"/>
	<rect id="XMLID_853_" x="175" style="fill:#006DF0;" width="110" height="60"/>
</g>
</svg>
