<?xml version="1.0" encoding="iso-8859-1"?>
<!-- Generator: Adobe Illustrator 19.0.0, SVG Export Plug-In . SVG Version: 6.00 Build 0)  -->
<svg version="1.1" id="Capa_1" xmlns="http://www.w3.org/2000/svg" xmlns:xlink="http://www.w3.org/1999/xlink" x="0px" y="0px"
	 viewBox="0 0 350 350" style="enable-background:new 0 0 350 350;" xml:space="preserve">
<g id="XMLID_1088_">
	<rect id="XMLID_1089_" x="55" y="30" style="fill:#FFDA44;" width="240" height="320"/>
	<rect id="XMLID_1090_" x="175" y="130" style="fill:#FFFFFF;" width="90" height="30"/>
	<circle id="XMLID_1091_" style="fill:#006DF0;" cx="175" cy="30" r="30"/>
	<path id="XMLID_1092_" style="fill:#0052B4;" d="M175,60c-16.568,0-30-13.432-30-30s13.432-30,30-30"/>
	<rect id="XMLID_1093_" x="105" y="30" style="fill:#0052B4;" width="70" height="50"/>
	<rect id="XMLID_1094_" x="175" y="30" style="fill:#006DF0;" width="70" height="50"/>
	<polyline id="XMLID_1095_" style="fill:none;stroke:#FF9811;stroke-width:30;stroke-miterlimit:10;" points="85,140 105,160 
		145,120 	"/>
	<rect id="XMLID_1096_" x="175" y="200" style="fill:#FFFFFF;" width="90" height="30"/>
	<polyline id="XMLID_1097_" style="fill:none;stroke:#FF9811;stroke-width:30;stroke-miterlimit:10;" points="85,210 105,230 
		145,190 	"/>
	<rect id="XMLID_1098_" x="175" y="270" style="fill:#FFFFFF;" width="90" height="30"/>
	<polyline id="XMLID_1099_" style="fill:none;stroke:#FF9811;stroke-width:30;stroke-miterlimit:10;" points="85,280 105,300 
		145,260 	"/>
</g>
</svg>
